…
下面我们就用一个简单的例子来看一看如何做数据探索。

### 2.2 分析汽车排放数据集

首先载入 tidyverse 包 ， 并观察 mpg 数据的头部：

```
library(tidyverse)
mpg

```

```
## # A tibble: 234 × 11
##    manufacturer      model displ  year   cyl      trans   drv   cty   hwy
##           <chr>      <chr> <dbl> <int> <int>      <chr> <chr> <int> <int>
## 1          audi         a4   1.8  1999     4   auto(l5)     f    18    29
## 2          audi         a4   1.8  1999     4 manual(m5)     f    21    29
## 3          audi         a4   2.0  2008     4 manual(m6)     f    20    31
## 4          audi         a4   2.0  2008     4   auto(av)     f    21    30
## 5          audi         a4   2.8  1999     6   auto(l5)     f    16    26
## 6          audi         a4   2.8  1999     6 manual(m5)     f    18    26
## 7          audi         a4   3.1  2008     6   auto(av)     f    18    27
## 8          audi a4 quattro   1.8  1999     4 manual(m5)     4    18    26
## 9          audi a4 quattro   1.8  1999     4   auto(l5)     4    16    25
## 10         audi a4 quattro   2.0  2008     4 manual(m6)     4    20    28
## # ... with 224 more rows, and 2 more variables: fl <chr>, class <chr>
…
data %>% func_1(arg1 = haha) %>% func_2(arg2 = huhu) %>% func_3(arg3 = hoho)

逻辑链条变得清晰易懂。

##### filter: 筛选行

filter 是一个用于筛选行的函数 ，例如我们想筛出排量大于等于 5 ， 高速路每公里耗油小于 20 的车：

```
mpg %>% filter(displ >=5 , hwy < 20)

```

```
## # A tibble: 29 × 11
##    manufacturer              model displ  year   cyl      trans   drv
##           <chr>              <chr> <dbl> <int> <int>      <chr> <chr>
## 1     chevrolet c1500 suburban 2wd   5.3  2008     8   auto(l4)     r
## 2     chevrolet c1500 suburban 2wd   5.7  1999     8   auto(l4)     r
## 3     chevrolet c1500 suburban 2wd   6.0  2008     8   auto(l4)     r
## 4     chevrolet    k1500 tahoe 4wd   5.3  2008     8   auto(l4)     4
## 5     chevrolet    k1500 tahoe 4wd   5.3  2008     8   auto(l4)     4
## 6     chevrolet    k1500 tahoe 4wd   5.7  1999     8   auto(l4)     4
## 7     chevrolet    k1500 tahoe 4wd   6.5  1999     8   auto(l4)     4
## 8         dodge  dakota pickup 4wd   5.2  1999     8 manual(m5)     4
## 9         dodge  dakota pickup 4wd   5.2  1999     8   auto(l4)     4
## 10        dodge        durango 4wd   5.2  1999     8   auto(l4)     4
## # ... with 19 more rows, and 4 more variables: cty <int>, hwy <int>,
## #   fl <chr>, class <chr>
…
#### arrange: 排序

得到了这些排量较大 ， 耗油较小的车 ， 我们想按照生产日期降序排列 , 耗油量升序排列。

```
mpg %>% filter(displ >=5 , hwy < 20) %>% arrange(desc(year) , hwy)

```

```
## # A tibble: 29 × 11
##    manufacturer               model displ  year   cyl    trans   drv   cty
##           <chr>               <chr> <dbl> <int> <int>    <chr> <chr> <int>
## 1     chevrolet     k1500 tahoe 4wd   5.3  2008     8 auto(l4)     4    11
## 2          jeep  grand cherokee 4wd   6.1  2008     8 auto(l5)     4    11
## 3     chevrolet  c1500 suburban 2wd   5.3  2008     8 auto(l4)     r    11
## 4     chevrolet  c1500 suburban 2wd   6.0  2008     8 auto(l4)     r    12
## 5         dodge ram 1500 pickup 4wd   5.7  2008     8 auto(l5)     4    13
## 6          ford     f150 pickup 4wd   5.4  2008     8 auto(l4)     4    13
## 7         dodge         durango 4wd   5.7  2008     8 auto(l5)     4    13
## 8          ford      expedition 2wd   5.4  2008     8 auto(l6)     r    12
## 9          jeep  grand cherokee 4wd   5.7  2008     8 auto(l5)     4    13
## 10      lincoln       navigator 2wd   5.4  2008     8 auto(l6)     r    12
## # ... with 19 more rows, and 3 more variables: hwy <int>, fl <chr>,
## #   class <chr>
…
##### select: 选择列

这 11 个变量太多 ， 我们只关心车型 ， 那么可以通过 select 函数把这一个变量单独提出来

```
mpg %>% filter(displ >=5 , hwy < 20) %>% arrange(desc(year) , hwy) %>% select(model)

```

```
## # A tibble: 29 × 1
##                  model
##                  <chr>
## 1      k1500 tahoe 4wd
## 2   grand cherokee 4wd
## 3   c1500 suburban 2wd
## 4   c1500 suburban 2wd
## 5  ram 1500 pickup 4wd
## 6      f150 pickup 4wd
## 7          durango 4wd
## 8       expedition 2wd
## 9   grand cherokee 4wd
## 10       navigator 2wd
## # ... with 19 more rows
…
##### mutate: 生成新列

我们回到原来的 mpg 数据集 ， 按照常识 ， 排气管越多 ， 排量越大 ， 我们想生成一个新变量来看一看每根排气管的平均排气量是不是很接近。

```
mpg %>% mutate(ave_displ= displ / cyl)  %>% select(ave_displ)

```

```
## # A tibble: 234 × 1
##    ave_displ
##        <dbl>
## 1  0.4500000
## 2  0.4500000
## 3  0.5000000
## 4  0.5000000
## 5  0.4666667
## 6  0.4666667
## 7  0.5166667
## 8  0.4500000
## 9  0.4500000
## 10 0.5000000
## # ... with 224 more rows
…
